9.381192691943116557e-01
1.008174184006426444e+00
1.072617476545236537e+00
1.132899769944482937e+00
1.188084373714938247e+00
1.241297387109993267e+00
1.290257269394518014e+00
1.338057875419756071e+00
1.382377303468113716e+00
1.427161402925965605e+00
1.468051791454237698e+00
1.506775536606643318e+00
1.548020694905531069e+00
1.584783378996507786e+00
1.621384028481652972e+00
1.657438322702962541e+00
1.691876822559331250e+00
1.725829990320580265e+00
1.756864224060548985e+00
1.789862630046381797e+00
1.820201459485640161e+00
1.850646235183066590e+00
1.880642126404284964e+00
1.909449046981266607e+00
1.936513742478893185e+00
1.964353929292193435e+00
1.990072334692152944e+00
2.017867718963505475e+00
2.042181594515766196e+00
2.068556895072362956e+00
2.093421685162235146e+00
2.116939646550755949e+00
2.140193678578631076e+00
2.164055291893451471e+00
2.185825359612961982e+00
2.206825876031849543e+00
2.229425847920694981e+00
2.250907699700856135e+00
2.271144317949078228e+00
2.292920299600006206e+00
2.311329952303792901e+00
2.331427296520743209e+00
2.350829273582967893e+00
2.370142847051102120e+00
2.387567779417188785e+00
2.405858399317636565e+00
2.423409727733093266e+00
2.440594261839831081e+00
2.458184435570262671e+00
2.473632926873841065e+00
9.421073089893554631e-01
1.011993114659256898e+00
1.076276255404217563e+00
1.135768514567822240e+00
1.191171455728558648e+00
1.243534101832061811e+00
1.293141483450930940e+00
1.340245761567931737e+00
1.385963570600697414e+00
1.429429264381787634e+00
1.471291711058938523e+00
1.512016969496126739e+00
1.550350672301615385e+00
1.587374172073065415e+00
1.623869268350302209e+00
1.659631011607000550e+00
1.694166295933198230e+00
1.727541257028556432e+00
1.760120785264567500e+00
1.791339703965139307e+00
1.822037248072585047e+00
1.853393977450665808e+00
1.883263859584973998e+00
1.909449046981266607e+00
1.937267072211412700e+00
1.966423345943693057e+00
1.993215720474136976e+00
2.019946681678842282e+00
2.044539760392411143e+00
2.071513805095089200e+00
2.094121595840561234e+00
2.118264726089479133e+00
2.141136090120738800e+00
2.164650215934296629e+00
2.187520720836463095e+00
2.210050849875137224e+00
2.232233521114733499e+00
2.252124552505644139e+00
2.273001272063737588e+00
2.294466226161592903e+00
2.313234291694723943e+00
2.333850145102545071e+00
2.352182518111362697e+00
2.371990911464914920e+00
2.388988785124714020e+00
2.408070285887185413e+00
2.424554976606713375e+00
2.441695135640717051e+00
2.458486763798206631e+00
2.476251796007033601e+00
9.465013905695875973e-01
1.016197353512438895e+00
1.079904467666720658e+00
1.139249217571606909e+00
1.194236748723829233e+00
1.246498580795800892e+00
1.296445794206396274e+00
1.344785122632660590e+00
1.388633969351789066e+00
1.432006687269598455e+00
1.473048805088537749e+00
1.513883185611092808e+00
1.550595207489327887e+00
1.589726256254236914e+00
1.626750853683393228e+00
1.661339340006039889e+00
1.696531119969607149e+00
1.729407796963068122e+00
1.761777537508178115e+00
1.793441132977663610e+00
1.825361195952633242e+00
1.851930678640267613e+00
1.884001924768787140e+00
1.914078585389112019e+00
1.940018155007663170e+00
1.969509098596566865e+00
1.994537104298497843e+00
2.022015739817720092e+00
2.046104787246038725e+00
2.072249897613514857e+00
2.096562438374135695e+00
2.121231455149621414e+00
2.143639235274543253e+00
2.167612672727530221e+00
2.189209489582306212e+00
2.211387552936858736e+00
2.233250009541100312e+00
2.253095585849031579e+00
2.274157849263680031e+00
2.295347148333617859e+00
2.314499227973151552e+00
2.335056519439091538e+00
2.353916230920363173e+00
2.372727940885595466e+00
2.390581878550435135e+00
2.409764104266346241e+00
2.427486109095785327e+00
2.444044795918076218e+00
2.461048091670657634e+00
2.477844476338758373e+00
9.506568825045106363e-01
1.019946681678842282e+00
1.083502619830267300e+00
1.142702245737615474e+00
1.197004728023045583e+00
1.249931756634194757e+00
1.298634783124435588e+00
1.346157302232008357e+00
1.391816923613248713e+00
1.434888120867315875e+00
1.475380593143361008e+00
1.516667559099042828e+00
1.554610285226164068e+00
1.592620821321982350e+00
1.628082260990679320e+00
1.664547962246546664e+00
1.698100545623389968e+00
1.733116981442064386e+00
1.764400322956388045e+00
1.793650717707172992e+00
1.827110687466011241e+00
1.856003453997220998e+00
1.884908594162607143e+00
1.914501822827314070e+00
1.943791198929301522e+00
1.969648840480725305e+00
1.997167871445833853e+00
2.024485667699166935e+00
2.050379756261457853e+00
2.074084689028243833e+00
2.098297536494697635e+00
2.122870922864435350e+00
2.146438135285774429e+00
2.169968173996892347e+00
2.192009592653670236e+00
2.212453961040275807e+00
2.234517283512686525e+00
2.256477206241676914e+00
2.278067330888662312e+00
2.295786940251609121e+00
2.317854489331469203e+00
2.336459733848529563e+00
2.355643050220868950e+00
2.374198257929082789e+00
2.392696953259665804e+00
2.410945858687774557e+00
2.427972713608208988e+00
2.444357125656027474e+00
2.462397997898956081e+00
2.479575310174988445e+00
9.547729896897170221e-01
1.023663918197793343e+00
1.087071205906535276e+00
1.146438135285774651e+00
1.201123897207379443e+00
1.251881454552527639e+00
1.302547372487485644e+00
1.348304863048160662e+00
1.394276526767821434e+00
1.437433443797971222e+00
1.477555332198980942e+00
1.518908573691414299e+00
1.557266528869904132e+00
1.594613509160097919e+00
1.631240780235509114e+00
1.665862300203155177e+00
1.699664320202373347e+00
1.731910942116872354e+00
1.765891976430015387e+00
1.797198269838959028e+00
1.829432433617598663e+00
1.857453117035266388e+00
1.889917683436205920e+00
1.917610525749867234e+00
1.945960703577568562e+00
1.970950934345424121e+00
1.999826247454412398e+00
2.024485667699166935e+00
2.050379756261457853e+00
2.075181854618691535e+00
2.101403350555330896e+00
2.123198075031998755e+00
2.148602654806093248e+00
2.170555058521208558e+00
2.192567453336545569e+00
2.215637563435061796e+00
2.236537261488694028e+00
2.258397804095508832e+00
2.278982116865443164e+00
2.299289334087680103e+00
2.317436496535099089e+00
2.338257230246255425e+00
2.357172257723033404e+00
2.376211850282672788e+00
2.393926006585837207e+00
2.410945858687774557e+00
2.429106008332696298e+00
2.447158031342219431e+00
2.464340484627667305e+00
2.479287316476169956e+00
9.586594270529331663e-01
1.028164419424469900e+00
1.090963076595731662e+00
1.148602654806093470e+00
1.204933522354144859e+00
1.256236533205922878e+00
1.305351369446623666e+00
1.351796306897023570e+00
1.396373727536506459e+00
1.439174739843468442e+00
1.481442628502305014e+00
1.520483532740791954e+00
1.560384922972015476e+00
1.597914471202528164e+00
1.634376494088367604e+00
1.668851648082518624e+00
1.701395269013920242e+00
1.735758537443738758e+00
1.768268016451548075e+00
1.801060529847855474e+00
1.832636627596703205e+00
1.861295393526695818e+00
1.891258616904138989e+00
1.919914480659431488e+00
1.948559662108961588e+00
1.974557744853579822e+00
2.001733712809000476e+00
2.028164419424469678e+00
2.054229909863397374e+00
2.077367905284156713e+00
2.102776614883441475e+00
2.126456113431804074e+00
2.148602654806093248e+00
2.172310968521954155e+00
2.195346058348419671e+00
2.218272853571447545e+00
2.238046103128795483e+00
2.259832699063483386e+00
2.278982116865443164e+00
2.299507298700487645e+00
2.320354032817671719e+00
2.339848783037636881e+00
2.358315640082195852e+00
2.377852419006754481e+00
2.395151591504542488e+00
2.414806279501012565e+00
2.431041945335885579e+00
2.447778009294621082e+00
2.465234094988014490e+00
2.481442628502304792e+00
9.631264410819047050e-01
1.032215703297981513e+00
1.094820380354799783e+00
1.153814864344528957e+00
1.207634367388961572e+00
1.259115844185066280e+00
1.308777773664721034e+00
1.354876422516233747e+00
1.399673721481038191e+00
1.441066406639263109e+00
1.483587296968894131e+00
1.523616419054370841e+00
1.560743301054711818e+00
1.598899887063883085e+00
1.635584266311230106e+00
1.669409867287782623e+00
1.705863712283919309e+00
1.738463439461952476e+00
1.771587480881255283e+00
1.802705327074352049e+00
1.832764304940531330e+00
1.862906213562998126e+00
1.891537457672564315e+00
1.921738483684598542e+00
1.949438801036504243e+00
1.976074731619873903e+00
2.003029470553618019e+00
2.028977705208777849e+00
2.054613054556887697e+00
2.080265627339844769e+00
2.104487111312395076e+00
2.128722284338426807e+00
2.151063253353750149e+00
2.173186268412274025e+00
2.196728722623286778e+00
2.219322508419336870e+00
2.240049772112647553e+00
2.261738547352537765e+00
2.282622112878062381e+00
2.301680949293576361e+00
2.322012438582400584e+00
2.341236623238692083e+00
2.359645792674542886e+00
2.378942698613437212e+00
2.396896449142523977e+00
2.415307292225567615e+00
2.432648660013106756e+00
2.450557009418329102e+00
2.466125870418199195e+00
2.483729899000023611e+00
9.682026681428496095e-01
1.035029282202368117e+00
1.097604328874410839e+00
1.155639633759776297e+00
1.211387552936858736e+00
1.261976191397812475e+00
1.310268366632447501e+00
1.357744325180375577e+00
1.401745082237062734e+00
1.444357125656027696e+00
1.486146996806572584e+00
1.526210003841664165e+00
1.565375502714073663e+00
1.602277084300192556e+00
1.638788667157398349e+00
1.673205281779045261e+00
1.707910665713106013e+00
1.738701300434709829e+00
1.771881320190098918e+00
1.804343918479865749e+00
1.836260802858486807e+00
1.864392405150588683e+00
1.894703652609230016e+00
1.923606643017458984e+00
1.951628893836638179e+00
1.978500069311459164e+00
2.005180512503780044e+00
2.031004281363536723e+00
2.056142262059052150e+00
2.081707270097349127e+00
2.105169427999331599e+00
2.129045059887958224e+00
2.152288344383056273e+00
2.175221800343052347e+00
2.198106998873401441e+00
2.220369632451394626e+00
2.241795431295198870e+00
2.262451089730429299e+00
2.282848602834644858e+00
2.303843774888654661e+00
2.323664535608100046e+00
2.342422680822206171e+00
2.361916618668643331e+00
2.380211241711605918e+00
2.398634324538392093e+00
2.415474168109235542e+00
2.434728541779757727e+00
2.451325808489519531e+00
2.468642668391511474e+00
2.485863329597334470e+00
9.718322799249251576e-01
1.038620161949702858e+00
1.101403350555330674e+00
1.158965260383410190e+00
1.213783299335304156e+00
1.265525335219073844e+00
1.314077991779212917e+00
1.360404054729938750e+00
1.404833716619938055e+00
1.447468130949755682e+00
1.486996888431822539e+00
1.528016341189201377e+00
1.568436414416885194e+00
1.604334073102911207e+00
1.639187559935753935e+00
1.674585602302913756e+00
1.708250888591377636e+00
1.740441644949765942e+00
1.774954689080138426e+00
1.807196660710947311e+00
1.837019948540908443e+00
1.867408556522791141e+00
1.895422546039407852e+00
1.924847632975537071e+00
1.952501847863023610e+00
1.980094313785293769e+00
2.006037954997317296e+00
2.032618760850720019e+00
2.057666103909829403e+00
2.083502619830267300e+00
2.107549129744686223e+00
2.131297796597622973e+00
2.154423973114647062e+00
2.178401341533755087e+00
2.198931869932208905e+00
2.222716471147583306e+00
2.243286146083446120e+00
2.264817823009536379e+00
2.283753383332526532e+00
2.305136318943639129e+00
2.324282455297692618e+00
2.345765693114488126e+00
2.364175632770619373e+00
2.382737265761330381e+00
2.400365273349938988e+00
2.418632687354065336e+00
2.436162647040756024e+00
2.452706226511029097e+00
2.468790262099611166e+00
2.486005186362242103e+00
9.761665001319751456e-01
1.042969073393180013e+00
1.105169427999331599e+00
1.163459551769990163e+00
1.215901813204031567e+00
1.266701966884087982e+00
1.316389751073195447e+00
1.362105319293772876e+00
1.406880670049124760e+00
1.450864692379766119e+00
1.489958479424834614e+00
1.529558673021163218e+00
1.570542939881897526e+00
1.606058749410314235e+00
1.641771470653959231e+00
1.678973375919765143e+00
1.712312908681365320e+00
1.744918542441352916e+00
1.776773802412106917e+00
1.808481056565951040e+00
1.839100782707153048e+00
1.870403905279027112e+00
1.899273187317603862e+00
1.926342446625655125e+00
1.954339008602460126e+00
1.981365509078544473e+00
2.008174184006426444e+00
2.033423755486949869e+00
2.060320028688285010e+00
2.084218686739238713e+00
2.109240968588203202e+00
2.133858125203334843e+00
2.155336037465061860e+00
2.178689239775589925e+00
2.200576926754848284e+00
2.225567713439470907e+00
2.245265839457461166e+00
2.265289625860829936e+00
2.287353772714746381e+00
2.306853748693008743e+00
2.326745379565321681e+00
2.345569756056391952e+00
2.364550995353972063e+00
2.383994789441732820e+00
2.400883215548362593e+00
2.419625360887743160e+00
2.436798510231803494e+00
2.454844860008510210e+00
2.471144965160632978e+00
2.487986331129393491e+00
9.807303765359453029e-01
1.047664194601559906e+00
1.108903127667313360e+00
1.165541076722373059e+00
1.219322508419336648e+00
1.270678836144706336e+00
1.318063334962761513e+00
1.365300748637987338e+00
1.410270964252184456e+00
1.453165392525857191e+00
1.493876110852822903e+00
1.532372133567877492e+00
1.571242850560223836e+00
1.608526033577194037e+00
1.643748685459525793e+00
1.678154038010437166e+00
1.714664992862536819e+00
1.747023177451627829e+00
1.779307827583585855e+00
1.810030786405839365e+00
1.841547165256553154e+00
1.870579460552684647e+00
1.900039235487324785e+00
1.929418925714292854e+00
1.955591550405724410e+00
1.983265352566545348e+00
2.010299956639812091e+00
2.037426497940623804e+00
2.061075323629791622e+00
2.085647288296856416e+00
2.110926242266420338e+00
2.133538908370217424e+00
2.156549151331781378e+00
2.180699201296034673e+00
2.203032887014710450e+00
2.225309281725862842e+00
2.246252312299322096e+00
2.267406418752904163e+00
2.288472800599782531e+00
2.309204179670407697e+00
2.327971623623010355e+00
2.347525159998689492e+00
2.366049209800235253e+00
2.385606273598312121e+00
2.404320467221730873e+00
2.421439390220049503e+00
2.439174739843468220e+00
2.455910240382742860e+00
2.472756449317212279e+00
2.489255168369260307e+00
9.843472575858638329e-01
1.050766311233042316e+00
1.110926242266420338e+00
1.169968173996892347e+00
1.222716471147583306e+00
1.274619619091237999e+00
1.321391278311689010e+00
1.368844506825821261e+00
1.411451342137937548e+00
1.454844860008510210e+00
1.496237545166735128e+00
1.535547279176667779e+00
1.572755465154219712e+00
1.610766594773270777e+00
1.645815118296641844e+00
1.681331705969165702e+00
1.715501945293283814e+00
1.748730556098494482e+00
1.780461332861717594e+00
1.811642021453151008e+00
1.844663528240239048e+00
1.872797039989598344e+00
1.902438056198664906e+00
1.930286647245519571e+00
1.959566046637927661e+00
1.984932166067411963e+00
2.011147360775797477e+00
2.037027879755775039e+00
2.062957834084510278e+00
2.088136088700551340e+00
2.112605001534574534e+00
2.136086097384097382e+00
2.158965260383410190e+00
2.182699903336042357e+00
2.205204363948144675e+00
2.226857570288723664e+00
2.248463717551032026e+00
2.269045709657623089e+00
2.289365951520031750e+00
2.309843004716070514e+00
2.329601248356518717e+00
2.350054093579030390e+00
2.367914738793752694e+00
2.386142108930818573e+00
2.404833716619938055e+00
2.423081958297231164e+00
2.439332693830262855e+00
2.457276186061325696e+00
2.474216264076255278e+00
2.490660653356136844e+00
9.894943127727091614e-01
1.054613054556887697e+00
1.114944415712584735e+00
1.172310968521954155e+00
1.224533062606085743e+00
1.275311354541811548e+00
1.324899497052313357e+00
1.371067862271736271e+00
1.414973347970817974e+00
1.455453968778628093e+00
1.498034723687026837e+00
1.538196578349454224e+00
1.577491799837225317e+00
1.613630434925240609e+00
1.650598898172656925e+00
1.684576087388455212e+00
1.718169405391306803e+00
1.750816842649754568e+00
1.782185866492016268e+00
1.815179130139418673e+00
1.846584502898046098e+00
1.875003353600041001e+00
1.902383684432471522e+00
1.931864513492031810e+00
1.960470777534298881e+00
1.986009931853261135e+00
2.011570443597278324e+00
2.038620161949702858e+00
2.064832219738574004e+00
2.088844562727004028e+00
2.113609151073027714e+00
2.138933940256923627e+00
2.159567193233620230e+00
2.184407485412320327e+00
2.206286044412432368e+00
2.227886704613673441e+00
2.250175948083925181e+00
2.270911639410480909e+00
2.292699003043929817e+00
2.310905629376141412e+00
2.331832044436248808e+00
2.350054093579030390e+00
2.370328007779510582e+00
2.388101201570516530e+00
2.405175546217989346e+00
2.425208051138656451e+00
2.442009159140952068e+00
2.458184435570262671e+00
2.476396826725330236e+00
2.492201451392539457e+00
9.931274851057101394e-01
1.058426024457005399e+00
1.118264726089479355e+00
1.176380692243270465e+00
1.228656958108935271e+00
1.280805928393666804e+00
1.328990855449428743e+00
1.374565060722765075e+00
1.417969642214736981e+00
1.458788881710844976e+00
1.502017214827147340e+00
1.539577883345309095e+00
1.578753784426434548e+00
1.614369839548288610e+00
1.649724185929522413e+00
1.686099771995915875e+00
1.719165494089213375e+00
1.755341183811547578e+00
1.786112283719826443e+00
1.817631467190515382e+00
1.847140617413406183e+00
1.876621916034272974e+00
1.905526048435048470e+00
1.934043719035525299e+00
1.961516011448948937e+00
1.988826407045275690e+00
2.014520538757923696e+00
2.040997692423490495e+00
2.067070856045370331e+00
2.091666957595684551e+00
2.115943176939055093e+00
2.140508043038179764e+00
2.162564406523018956e+00
2.186108379813205271e+00
2.207095540419218072e+00
2.230193378869045784e+00
2.252367514459898690e+00
2.273695587930092188e+00
2.292920299600006206e+00
2.312388949370591806e+00
2.332236415491443449e+00
2.351022852584123690e+00
2.371621927176021494e+00
2.389697548206385580e+00
2.407220892927396605e+00
2.425044874551388840e+00
2.443888546777371662e+00
2.460747541844197084e+00
2.477410687907251496e+00
2.492760389026837498e+00
9.973426906016223947e-01
1.062205808819712605e+00
1.122543524068754461e+00
1.178401341533755309e+00
1.231724383328516526e+00
1.281033367247727428e+00
1.330210784571528082e+00
1.377306251068198817e+00
1.420615770625764940e+00
1.463594402187000210e+00
1.502973059065631389e+00
1.542078146335625455e+00
1.580924975675619404e+00
1.617943434828972959e+00
1.654561554741743157e+00
1.687439774545894222e+00
1.720407400803108500e+00
1.754806855354423378e+00
1.787602146182337481e+00
1.818027841859256144e+00
1.846275242412213080e+00
1.877774349991398140e+00
1.908806599405674209e+00
1.934851802965660728e+00
1.962321972729584418e+00
1.989449817666691711e+00
2.016197353512438895e+00
2.043755126968679559e+00
2.066698550422995329e+00
2.092369699629120561e+00
2.117933835039641277e+00
2.140508043038179764e+00
2.164947372621841559e+00
2.187238619831478825e+00
2.210853365314893182e+00
2.231724383328516303e+00
2.252367514459898690e+00
2.274619619091238221e+00
2.293804359919336733e+00
2.313656346618031101e+00
2.332842266994351377e+00
2.354108439147400755e+00
2.373279893277496111e+00
2.390228362469129841e+00
2.409087369447834970e+00
2.426998958756537039e+00
2.444981112087944553e+00
2.462098381135156000e+00
2.478999131673357059e+00
2.495266744387810487e+00
1.001733712809000476e+00
1.065206128054311918e+00
1.125481265700594147e+00
1.182414652434554014e+00
1.235023159495223455e+00
1.285557309007773874e+00
1.332842266994351599e+00
1.380573003066887239e+00
1.422097163131710307e+00
1.465977368285822813e+00
1.505828033854836212e+00
1.544316141747427373e+00
1.582517883604062314e+00
1.619927710291467982e+00
1.654561554741743157e+00
1.690727543870366834e+00
1.722880610686939207e+00
1.757471947765667952e+00
1.788945727023747656e+00
1.817697554763024081e+00
1.850278552518037190e+00
1.880356199419236152e+00
1.909020854211155971e+00
1.936262341903477457e+00
1.965013450272247830e+00
1.993436230497611650e+00
2.017450729510536167e+00
2.044539760392411143e+00
2.071513805095089200e+00
2.094121595840561234e+00
2.119255889277936511e+00
2.143951116423963299e+00
2.166133970305109013e+00
2.188084373714938025e+00
2.211387552936858736e+00
2.232233521114733499e+00
2.255513712819533279e+00
2.274619619091238221e+00
2.295127085252191002e+00
2.316599302093860668e+00
2.335457900689384303e+00
2.354876422516233525e+00
2.374014740291911618e+00
2.392345155361204068e+00
2.410608542568367874e+00
2.428944290035574216e+00
2.446226401778162973e+00
2.464042205438810917e+00
2.478422187740080496e+00
2.496376054012400925e+00
1.005609445360280407e+00
1.069668096911595701e+00
1.129367595722985618e+00
1.186391215695493218e+00
1.237543738142874439e+00
1.288025535388362730e+00
1.335858911319818043e+00
1.381295623003826023e+00
1.426023015689876106e+00
1.468790262099610944e+00
1.509068045017161630e+00
1.547159121327417619e+00
1.585573518622731104e+00
1.620760489994205633e+00
1.658297650308189874e+00
1.692229835772755653e+00
1.725748332995548306e+00
1.759138816281166529e+00
1.792251571903264118e+00
1.821644517542217123e+00
1.852296965826925490e+00
1.882922790602598706e+00
1.911051020328126349e+00
1.938169346390320236e+00
1.966610986681934348e+00
1.994669021825529409e+00
2.019946681678842282e+00
2.046104787246038725e+00
2.070407321740119766e+00
2.096910013008056239e+00
2.121231455149621414e+00
2.144574207609616145e+00
2.167612672727530221e+00
2.190611797813605044e+00
2.212720154417842089e+00
2.235780870327560343e+00
2.255272505103306013e+00
2.274850320016664540e+00
2.297103650149256548e+00
2.318689269947745935e+00
2.336459733848529563e+00
2.356981400993131359e+00
2.375480714618572353e+00
2.393926006585837207e+00
2.412124406173317137e+00
2.428782511496954566e+00
2.447778009294621082e+00
2.464042205438810917e+00
2.479719235439571179e+00
2.498586208817517473e+00
1.009025742086910205e+00
1.074450718954591100e+00
1.133219456732494246e+00
1.189209489582305990e+00
1.240798771117331167e+00
1.291812687467118970e+00
1.339650157613683890e+00
1.384711742938282475e+00
1.428296813982879554e+00
1.471731651480051140e+00
1.510946948672972745e+00
1.547651658359969096e+00
1.587374172073065415e+00
1.624282095835668294e+00
1.660675788338524139e+00
1.690904554054966535e+00
1.727947709544796817e+00
1.761852694466383040e+00
1.791901080009571157e+00
1.824776462475545591e+00
1.852235939411887466e+00
1.884512159190393943e+00
1.911264170998369982e+00
1.941312625360662070e+00
1.967828679330155150e+00
1.992111487786949686e+00
2.022840610876527556e+00
2.046885190837710145e+00
2.074084689028243833e+00
2.094820380354800005e+00
2.121887985103680929e+00
2.146438135285774429e+00
2.169674434058806778e+00
2.192009592653670236e+00
2.213517756996304708e+00
2.237292337567458933e+00
2.257678574869184551e+00
2.277150613963796921e+00
2.297760511099133929e+00
2.318272080211627006e+00
2.337459261290656176e+00
2.357553719743081366e+00
2.376029181728180006e+00
2.394801777162711254e+00
2.414137362184476832e+00
2.430397591386966649e+00
2.449169732165200841e+00
2.464936429121732608e+00
2.483016420144132042e+00
2.498586208817517473e+00
1.014100321519620485e+00
1.077367905284156491e+00
1.137037454789512569e+00
1.192846115188841649e+00
1.245018870737752970e+00
1.292920299600006206e+00
1.341632335778054186e+00
1.385963570600697414e+00
1.428620672671939040e+00
1.470410490975930795e+00
1.513084360465144051e+00
1.550350672301615385e+00
1.590061230803742509e+00
1.625209525381881015e+00
1.662474503750309474e+00
1.697142126275459573e+00
1.729650668335920294e+00
1.761251074308662679e+00
1.795462894390379871e+00
1.824386202318774020e+00
1.856003453997220998e+00
1.885700380128329856e+00
1.916401303603875617e+00
1.942404940856106599e+00
1.971183040856161472e+00
1.997430073797471284e+00
2.024074987307426188e+00
2.049992856920142437e+00
2.077367905284156713e+00
2.100025730107862643e+00
2.123198075031998755e+00
2.147985320683805099e+00
2.170555058521208558e+00
2.193402903062417586e+00
2.215108581053093051e+00
2.237543738142874439e+00
2.258158193340794373e+00
2.280122896302307467e+00
2.301029995663981254e+00
2.320146286111053779e+00
2.339848783037636881e+00
2.359456020120986430e+00
2.378216149749877939e+00
2.396199347095736343e+00
2.414639146737008968e+00
2.432648660013106756e+00
2.451018452155457439e+00
2.465977368285822813e+00
2.483301952358166975e+00
2.500922239190300544e+00
1.017033339298780259e+00
1.079904467666720658e+00
1.139879086401236474e+00
1.195346058348419671e+00
1.247236549506764103e+00
1.297103650149256548e+00
1.342422680822206171e+00
1.388278863459639023e+00
1.431202884556516564e+00
1.472756449317212279e+00
1.514016180400649336e+00
1.552424845704085454e+00
1.591621038213319128e+00
1.628286731089514383e+00
1.663606708124520273e+00
1.699490845272204398e+00
1.731749883527263334e+00
1.764699063798367717e+00
1.796227314029438693e+00
1.827627704767433414e+00
1.859378504425601042e+00
1.886941705983415263e+00
1.916874878538683324e+00
1.945370094490303625e+00
1.971785937879114492e+00
1.999217565530103435e+00
2.025305865264770411e+00
2.051923916046106466e+00
2.075911761482777340e+00
2.102433705681336029e+00
2.124504224834282251e+00
2.150142161848558331e+00
2.174059807725025273e+00
2.194514341882467079e+00
2.216957207361097026e+00
2.239549720840472880e+00
2.259832699063483386e+00
2.280805928393666804e+00
2.301897717195207971e+00
2.322012438582400584e+00
2.341434524578140053e+00
2.360782689873280216e+00
2.379849178762829975e+00
2.397592434038116949e+00
2.416973172603036346e+00
2.434089638417890722e+00
2.451172157512539584e+00
2.468790262099611166e+00
2.486572150518356228e+00
2.502017214827147562e+00
1.022428371185486462e+00
1.084576277934330868e+00
1.143014800254094965e+00
1.198657086954422635e+00
1.248463717551032026e+00
1.296884475538547132e+00
1.345765693114488126e+00
1.391464411839103299e+00
1.434728541779757727e+00
1.475671188324429561e+00
1.516667559099042828e+00
1.556061159009532568e+00
1.594503043820089117e+00
1.631646662958419425e+00
1.667266119382274203e+00
1.701481635620927024e+00
1.733999286538386864e+00
1.767007363949804066e+00
1.798788713951249285e+00
1.829753918924974965e+00
1.860038389807193493e+00
1.890644536295247535e+00
1.920279894632948459e+00
1.944877305963695235e+00
1.973543468532489520e+00
2.002166061756507798e+00
2.028164419424469678e+00
2.054613054556887697e+00
2.079543007402905985e+00
2.102433705681336029e+00
2.126456113431804074e+00
2.151063253353750149e+00
2.173477643452994545e+00
2.195899652409233571e+00
2.220108088040054994e+00
2.241546480596548374e+00
2.259354927308034444e+00
2.283527364861693609e+00
2.302979936748249301e+00
2.324282455297692618e+00
2.343211590179747450e+00
2.362293937964230928e+00
2.382737265761330381e+00
2.400019635065158585e+00
2.417803722639880970e+00
2.434728541779757727e+00
2.453012391121455416e+00
2.469674772551798014e+00
2.487279816443068725e+00
2.503245771465112846e+00
1.026533264523296740e+00
1.087781417809542406e+00
1.144885418287142187e+00
1.200029266553770402e+00
1.253095585849031579e+00
1.301680949293576139e+00
1.348499570283837823e+00
1.394976719554564371e+00
1.437592032253961261e+00
1.479287316476170178e+00
1.519959180752068484e+00
1.559188189004775404e+00
1.597366050266027848e+00
1.632052166705809881e+00
1.668944734457733725e+00
1.702602841340427053e+00
1.737113094305961170e+00
1.768490105171245164e+00
1.800648355363988040e+00
1.832189461068513214e+00
1.862191031051597223e+00
1.892038920341291508e+00
1.921426341015265438e+00
1.948706308904851969e+00
1.976945750559242043e+00
2.003029470553618019e+00
2.031812271330370123e+00
2.054995861529141266e+00
2.079543007402905985e+00
2.105510184769974202e+00
2.131618664349125503e+00
2.153204900084284112e+00
2.177247836255623348e+00
2.199480914862355974e+00
2.220108088040054994e+00
2.241048150671644201e+00
2.264581729238077656e+00
2.284656282788515735e+00
2.305781151254982397e+00
2.328379603438737622e+00
2.344981413927258007e+00
2.364738555055398539e+00
2.383456296524752993e+00
2.402605241919914647e+00
2.418467020946600599e+00
2.435844365984441318e+00
2.455301771657076415e+00
2.470998169660873600e+00
2.487421211359474249e+00
2.504742636271688028e+00
1.031408464251624135e+00
1.092018470752797121e+00
1.150142161848558553e+00
1.203032887014710672e+00
1.256717745977486977e+00
1.305351369446623666e+00
1.353339095311304696e+00
1.397244581010386399e+00
1.440121603187803911e+00
1.482444791918265281e+00
1.522574632691176655e+00
1.561578368300960529e+00
1.596487133736544051e+00
1.634678752178682304e+00
1.670245853074123987e+00
1.703377368512349443e+00
1.735519058815170990e+00
1.772834927239018032e+00
1.802636918082810569e+00
1.833338388939397490e+00
1.863560764526242419e+00
1.893206753059847980e+00
1.921478380375690076e+00
1.951045948135819774e+00
1.980412461606891439e+00
2.005609445360280407e+00
2.030194785356751019e+00
2.057285644418214599e+00
2.082426300860771740e+00
2.107209969647868331e+00
2.130655349022030354e+00
2.155032228790970450e+00
2.176958980586908066e+00
2.200576926754848284e+00
2.222976449893391493e+00
2.243286146083446120e+00
2.264109156305808224e+00
2.284205067701793990e+00
2.306210508167761297e+00
2.327563260187277994e+00
2.345961541813140983e+00
2.364363354615730550e+00
2.384890796530553914e+00
2.403977963669354789e+00
2.420780619548565493e+00
2.437274797410123650e+00
2.456517857805262661e+00
2.473632926873841065e+00
2.489536629482095531e+00
2.505828033854836434e+00
1.035029282202368117e+00
1.097257309693419947e+00
1.152899596393747395e+00
1.207634367388961572e+00
1.258397804095508610e+00
1.307709923404806629e+00
1.354492600589436435e+00
1.399500661314610594e+00
1.442949869577861755e+00
1.483729899000023611e+00
1.523095838252567891e+00
1.562292864456474639e+00
1.601190532615333506e+00
1.638589083292716797e+00
1.672097857935717524e+00
1.704922291223401665e+00
1.740283719681879004e+00
1.773054693364262580e+00
1.806519134080705191e+00
1.834929096460575781e+00
1.865518519074774062e+00
1.895201474778893225e+00
1.924330984708678249e+00
1.951094556841662886e+00
1.981999714129878409e+00
2.006037954997317296e+00
2.033021444682910683e+00
2.057666103909829403e+00
2.083502619830267300e+00
2.108565023732834387e+00
2.132259689531044611e+00
2.154728207440155696e+00
2.180125875164053983e+00
2.205204363948144675e+00
2.223495940962394446e+00
2.247236549506764103e+00
2.268109729808478470e+00
2.286905352972374850e+00
2.308564413561238648e+00
2.327563260187277994e+00
2.348110068480237622e+00
2.368286884902131018e+00
2.387389826338729648e+00
2.404320467221730873e+00
2.420450859106068275e+00
2.439963935920904881e+00
2.456821348021598794e+00
2.472024697700281326e+00
2.490941205356786536e+00
2.507316040076413621e+00
1.040206627574711051e+00
1.100370545117562937e+00
1.156246190397344442e+00
1.210318519826231842e+00
1.261738547352537765e+00
1.310905629376141190e+00
1.358696099573810434e+00
1.402948829344404791e+00
1.444981112087944553e+00
1.484726804298661662e+00
1.526726867314635472e+00
1.564902672529204786e+00
1.602927712859189224e+00
1.638489256954637430e+00
1.675044735955892650e+00
1.707485011967473598e+00
1.742489464581775005e+00
1.774516965728549556e+00
1.805908455074197061e+00
1.838849090737255221e+00
1.867349617188792443e+00
1.897297122059496521e+00
1.926651077088888941e+00
1.955399086639266981e+00
1.982361701633146955e+00
2.005609445360280407e+00
2.035429738184548309e+00
2.059563417901267623e+00
2.084576277934330868e+00
2.110926242266420338e+00
2.136086097384097382e+00
2.156851901070011124e+00
2.181843587944772622e+00
2.206825876031849543e+00
2.224533062606085743e+00
2.248463717551032026e+00
2.269045709657623089e+00
2.290034611362517847e+00
2.307496037913213005e+00
2.329194415088450931e+00
2.348888723071437923e+00
2.367914738793752694e+00
2.385248682403219966e+00
2.406710458609790049e+00
2.423573519732735715e+00
2.441852175773291833e+00
2.458788881710844976e+00
2.474507639116975799e+00
2.492201451392539457e+00
2.507855871695830796e+00
1.042181594515766196e+00
1.104487111312395076e+00
1.161966616364074945e+00
1.214048679411941389e+00
1.264345507050092410e+00
1.314709692955173814e+00
1.360971883725935916e+00
1.402605241919914647e+00
1.449324093098726784e+00
1.489677291663698444e+00
1.529045170765768846e+00
1.567261692353874469e+00
1.605628222007618566e+00
1.640580806489652543e+00
1.675503384727956568e+00
1.710032699065753503e+00
1.743509764728429667e+00
1.778151250383643633e+00
1.809020720483672573e+00
1.840043330603494010e+00
1.870052581693544935e+00
1.900694774452397873e+00
1.929009985493961299e+00
1.956456583409899697e+00
1.983761560286164904e+00
2.010723865391772947e+00
2.037824750588341782e+00
2.061452479087193090e+00
2.086003705618381776e+00
2.111262513659065032e+00
2.139564266175849827e+00
2.162265614298021443e+00
2.181557773862786487e+00
2.205204363948144675e+00
2.226857570288723664e+00
2.247973266361806388e+00
2.269746373130766770e+00
2.291812687467118970e+00
2.311117842662505417e+00
2.329397879361042811e+00
2.351216345339341984e+00
2.368844506825821483e+00
2.388456452700266741e+00
2.405346360175709020e+00
2.423573519732735715e+00
2.442949869577861755e+00
2.459392487759231027e+00
2.476541809027428709e+00
2.493736802276839803e+00
2.510142699402573285e+00
1.049992856920142659e+00
1.108903127667313360e+00
1.165541076722373059e+00
1.218010042984363439e+00
1.267406418752904163e+00
1.316599302093860890e+00
1.363987829748491309e+00
1.405858399317636565e+00
1.449324093098726784e+00
1.491221576239282864e+00
1.530583859645117784e+00
1.569256833328610101e+00
1.604873770552635692e+00
1.645422269349091859e+00
1.678336246732180070e+00
1.711975854351755588e+00
1.746789832152612298e+00
1.778874472002739404e+00
1.809896246602439085e+00
1.840294331611436185e+00
1.872156272748292771e+00
1.898121575541107608e+00
1.927985947099428499e+00
1.956840490159233337e+00
1.986547813414724084e+00
2.013258665283516713e+00
2.037426497940623804e+00
2.066325925362037630e+00
2.092720644684099351e+00
2.113943352306836942e+00
2.136086097384097382e+00
2.160468531119037472e+00
2.182984967003581911e+00
2.206825876031849543e+00
2.229681842317675855e+00
2.250175948083925181e+00
2.270911639410480909e+00
2.290924559382754300e+00
2.312811826212088029e+00
2.330819466495836600e+00
2.350829273582967893e+00
2.370513089598592416e+00
2.391111613702802341e+00
2.408409578468429846e+00
2.425371166438941462e+00
2.442479769064448636e+00
2.460747541844197084e+00
2.476251796007033601e+00
2.494015374757143633e+00
2.511616020569137575e+00
1.052309099647323443e+00
1.112939976084080129e+00
1.168497483523032621e+00
1.221153321954705051e+00
1.271376871894074556e+00
1.320146286111054001e+00
1.364738555055398539e+00
1.410945858687774557e+00
1.452246574520437150e+00
1.494850021680093954e+00
1.533772058384718084e+00
1.571708831808687590e+00
1.609594409225219902e+00
1.646305680284758655e+00
1.680335513414563220e+00
1.714832512433332568e+00
1.749581734865559346e+00
1.780317312140151209e+00
1.814314200207459482e+00
1.844787718827846534e+00
1.871748018991871598e+00
1.902546779313991410e+00
1.931356150467927968e+00
1.958038016098336831e+00
1.987800285751872398e+00
2.012415374762432929e+00
2.040997692423490495e+00
2.065579714728448479e+00
2.091666957595684551e+00
2.115277591395901435e+00
2.140193678578631076e+00
2.163459551769990163e+00
2.184123354239670967e+00
2.207365037469071645e+00
2.229169702539100850e+00
2.250907699700856135e+00
2.272537777375237322e+00
2.293804359919336733e+00
2.311965660368366038e+00
2.332842266994351377e+00
2.351409751925439107e+00
2.371990911464914920e+00
2.390758528738717192e+00
2.407220892927396605e+00
2.427323786357247215e+00
2.443888546777371662e+00
2.460747541844197084e+00
2.479287316476169956e+00
2.495405563146193106e+00
2.511214701136387895e+00
1.055760464687734768e+00
1.117271295655764218e+00
1.171726453653231026e+00
1.224274014294257640e+00
1.275771900164931250e+00
1.322426052405952568e+00
1.369772288596962762e+00
1.413467412985824900e+00
1.454082270731089865e+00
1.495960394881705291e+00
1.534914104429866866e+00
1.575649614755219252e+00
1.612889769287484620e+00
1.648067129448934631e+00
1.682866795662324666e+00
1.718086294783091494e+00
1.748730556098494482e+00
1.783689236347316243e+00
1.813647695346896738e+00
1.844663528240239048e+00
1.873204309277040736e+00
1.908806599405674209e+00
1.937417581477137940e+00
1.962842681201242501e+00
1.986950787858516421e+00
2.014940349792936569e+00
2.039017321997412147e+00
2.069298012115529328e+00
2.093421685162235146e+00
2.115610511674299588e+00
2.140822180109310580e+00
2.164352855784437146e+00
2.188647295999717191e+00
2.209246848753373627e+00
2.230704313612569045e+00
2.253580289562182593e+00
2.273232834043045436e+00
2.293583513496116666e+00
2.314709692955173814e+00
2.335858911319817821e+00
2.354684553954728532e+00
2.372912002970106737e+00
2.390405156480080784e+00
2.410608542568367874e+00
2.427810572675990208e+00
2.445292769425971624e+00
2.461798557525109121e+00
2.480725378988487773e+00
2.495960394881705291e+00
2.511749711344982927e+00
1.061452479087193312e+00
1.120244795546365246e+00
1.175221800343052347e+00
1.227886704613673441e+00
1.278524964737017600e+00
1.324693913861774597e+00
1.371252629124939393e+00
1.413802516769351536e+00
1.457276186061325696e+00
1.497896742913220169e+00
1.538573733806855692e+00
1.575764980536719317e+00
1.616160312847582992e+00
1.649918718735419176e+00
1.684396478419020404e+00
1.719662683018046589e+00
1.752739693935327914e+00
1.785899028384383413e+00
1.819148942807134128e+00
1.847264101770764499e+00
1.876333329086380397e+00
1.907357608131172721e+00
1.935456880711609928e+00
1.962037686565012651e+00
1.989138224215789119e+00
2.019531684531255422e+00
2.043755126968679559e+00
2.070037866607755017e+00
2.095169351431755089e+00
2.117271295655764440e+00
2.141449773400467382e+00
2.165837624690128305e+00
2.188084373714938025e+00
2.211654400553182409e+00
2.233757362965510307e+00
2.252610340567373193e+00
2.274388795550378983e+00
2.294466226161592903e+00
2.315340476627288258e+00
2.335858911319817821e+00
2.355068206348850612e+00
2.374748346010103983e+00
2.393750640348080161e+00
2.411956237930401592e+00
2.431524584187450877e+00
2.447002898466162257e+00
2.463743721247058982e+00
2.480581786829168855e+00
2.497206180703954281e+00
2.513084360465144051e+00
1.065206128054311918e+00
1.121559844187500987e+00
1.178689239775589925e+00
1.231469590430681382e+00
1.281033367247727428e+00
1.328175661438322663e+00
1.375663613960885323e+00
1.417803722639880970e+00
1.461498526783018725e+00
1.500922239190300544e+00
1.540829814111079665e+00
1.580924975675619404e+00
1.614791791956417422e+00
1.650987094383445042e+00
1.687974620034555562e+00
1.720407400803108500e+00
1.754424789277258645e+00
1.787602146182337481e+00
1.818489822204213402e+00
1.846955325019823846e+00
1.879439965995217010e+00
1.907948521612272241e+00
1.937267072211412700e+00
1.965060520611198402e+00
1.990250032927816770e+00
2.017867718963505475e+00
2.043755126968679559e+00
2.072984744627930365e+00
2.096562438374135695e+00
2.119585774961783908e+00
2.143327129992046221e+00
2.167317334748176005e+00
2.190611797813605044e+00
2.210318519826231842e+00
2.235023159495223233e+00
2.254789687397209974e+00
2.275541688401309770e+00
2.297322714205302763e+00
2.316599302093860668e+00
2.336659823454419804e+00
2.355643050220868950e+00
2.376576957056511841e+00
2.393926006585837207e+00
2.412460547429961188e+00
2.429913697763754321e+00
2.448242412634439091e+00
2.464638559095032821e+00
2.481299273332855826e+00
2.498999363580153066e+00
2.514680544124981765e+00
1.069298012115529328e+00
1.128076012668715267e+00
1.181271771559461614e+00
1.234010817587179343e+00
1.282395504742525505e+00
1.332034277027517977e+00
1.376576957056511841e+00
1.419955748489757807e+00
1.462697408101717000e+00
1.503382063473732710e+00
1.540954808926132680e+00
1.580012112529424195e+00
1.618152733378519503e+00
1.654176541877960593e+00
1.689752696139156463e+00
1.722798396870905302e+00
1.760648619581355989e+00
1.789228057267335137e+00
1.819148942807134128e+00
1.850339854583479271e+00
1.881441721941393030e+00
1.908485018878649742e+00
1.936262341903477457e+00
1.968155937149970391e+00
1.993436230497611650e+00
2.019946681678842282e+00
2.045322978786657586e+00
2.071145290451082754e+00
2.096910013008056239e+00
2.120244795546365246e+00
2.144262773761990815e+00
2.167907810001480140e+00
2.189770956346873909e+00
2.211921084308509311e+00
2.234770295160916298e+00
2.258397804095508832e+00
2.278067330888662312e+00
2.297979244159362278e+00
2.318272080211627006e+00
2.337059726320524611e+00
2.357172257723033404e+00
2.376029181728180006e+00
2.393750640348080161e+00
2.414471949629302561e+00
2.431846045698725423e+00
2.449632650470074502e+00
2.467163965969090267e+00
2.483159209716979454e+00
2.499549625905149064e+00
2.515741416669365016e+00
1.074450718954591100e+00
1.131297796597622973e+00
1.186391215695493218e+00
1.236033147117636011e+00
1.287577809078705338e+00
1.333648756514701050e+00
1.379305517750581966e+00
1.421603926869831058e+00
1.462697408101717000e+00
1.505149978319906046e+00
1.543943942482906451e+00
1.581949658373317913e+00
1.619093330626742766e+00
1.656577291396114093e+00
1.692758818154724176e+00
1.724849087629385602e+00
1.757775491011925650e+00
1.790707287327679698e+00
1.819938569355395330e+00
1.851380667965596638e+00
1.881327584100551453e+00
1.911530462307162503e+00
1.940466677663528872e+00
1.968296115046255457e+00
1.994537104298497843e+00
2.020775488193558012e+00
2.046495164334708239e+00
2.072617476545236315e+00
2.098297536494697635e+00
2.122870922864435350e+00
2.145817714491827566e+00
2.169380495311949542e+00
2.192567453336545569e+00
2.213783299335304378e+00
2.236537261488694028e+00
2.257918450314058578e+00
2.278982116865443164e+00
2.299071260027409469e+00
2.320354032817671719e+00
2.339252634032699341e+00
2.359266164606748539e+00
2.377488383376132663e+00
2.397070549959408936e+00
2.414806279501012565e+00
2.432648660013106756e+00
2.450557009418329102e+00
2.467903946522800318e+00
2.484584529282842791e+00
2.500922239190300544e+00
2.517327882294373431e+00
1.077367905284156491e+00
1.134177107576766375e+00
1.188928483760853361e+00
1.241048150671644423e+00
1.289811839117621428e+00
1.338456493604604836e+00
1.380573003066887239e+00
1.423573519732735493e+00
1.464340484627667305e+00
1.507586039763010755e+00
1.545925329355842814e+00
1.585235063365775243e+00
1.620656479819620799e+00
1.658106835506392818e+00
1.695569227036185511e+00
1.725584972270694406e+00
1.762453482363546931e+00
1.791409915667160124e+00
1.824711443464734240e+00
1.853272224020683145e+00
1.881441721941393030e+00
1.911690158753861057e+00
1.941859126525373513e+00
1.968763048197248455e+00
1.996599222700166765e+00
2.024074987307426188e+00
2.048053173115608860e+00
2.075911761482777340e+00
2.100025730107862643e+00
2.123524980942732121e+00
2.147985320683805099e+00
2.171726453653231026e+00
2.194236748723829233e+00
2.216429830876251117e+00
2.237794993273922728e+00
2.257918450314058578e+00
2.280122896302307467e+00
2.301029995663981254e+00
2.322426052405952568e+00
2.340245761567931737e+00
2.360214613295352315e+00
2.380030247967830803e+00
2.397766256126450113e+00
2.416141031168328901e+00
2.435047641339964652e+00
2.451172157512539584e+00
2.469085299123120247e+00
2.487421211359474249e+00
2.502427119984432569e+00
2.518513939877887520e+00
1.082426300860771962e+00
1.140193678578631298e+00
1.192567453336545569e+00
1.242789809478676455e+00
1.294466226161592903e+00
1.338456493604604836e+00
1.384353414137506233e+00
1.427161402925965605e+00
1.468937805665461172e+00
1.510410948010176835e+00
1.554125581513012833e+00
1.589279221235967210e+00
1.625312450961673871e+00
1.662190990859007123e+00
1.693551085595913497e+00
1.729002709272190019e+00
1.762378429311964201e+00
1.793301353613115046e+00
1.826593053934048028e+00
1.855761372339947757e+00
1.885417765110936061e+00
1.915135906622011941e+00
1.943148129358562848e+00
1.971878617026265657e+00
1.998477303036506392e+00
2.023663918197793343e+00
2.051152522447381443e+00
2.077004326793350231e+00
2.102090525511836727e+00
2.125481265700594147e+00
2.150142161848558331e+00
2.174059807725025273e+00
2.196176185039973472e+00
2.218272853571447545e+00
2.239049093140191626e+00
2.261024833992397287e+00
2.282848602834644858e+00
2.302547372487485422e+00
2.322219294733919082e+00
2.342620042553348103e+00
2.361538971269279141e+00
2.380030247967830803e+00
2.399500661314610372e+00
2.417471693203292915e+00
2.435366506612661297e+00
2.452859335795852136e+00
2.469527479187013874e+00
2.487279816443068725e+00
2.503245771465112846e+00
2.519565500880509124e+00
1.086715663944882504e+00
1.141763230275787855e+00
1.193681029541281635e+00
1.248708735600917885e+00
1.297541667818159938e+00
1.341038631677522908e+00
1.387567779417188563e+00
1.431685344686011829e+00
1.470263446965078380e+00
1.512817758564873216e+00
1.550595207489327887e+00
1.590841834781602682e+00
1.628899564420606572e+00
1.660391098402467014e+00
1.695481676490197431e+00
1.728434950974254702e+00
1.762002969375115358e+00
1.796643703785116397e+00
1.827110687466011241e+00
1.858416877723488403e+00
1.887448500249953698e+00
1.916559219301113837e+00
1.944581364226926290e+00
1.973866449835378178e+00
2.000867721531226717e+00
2.026124516745450244e+00
2.051923916046106466e+00
2.077731179652392068e+00
2.102776614883441475e+00
2.127104798364807703e+00
2.150142161848558331e+00
2.174350597479380198e+00
2.196728722623286778e+00
2.219322508419336870e+00
2.241297387109993267e+00
2.261976191397812475e+00
2.283753383332526532e+00
2.302979936748249301e+00
2.323870606540508810e+00
2.343408593803857354e+00
2.363047594521093586e+00
2.381295623003826023e+00
2.401400540781544191e+00
2.418798290590353783e+00
2.437592032253961261e+00
2.453929592057728648e+00
2.470851324526117665e+00
2.488691698316940482e+00
2.505149978319905824e+00
2.521661015112073301e+00
1.090963076595731662e+00
1.145817714491827566e+00
1.200850498091077467e+00
1.252124552505644139e+00
1.297541667818159938e+00
1.345373730559088266e+00
1.389697548206385580e+00
1.432809005033168326e+00
1.474507639116975799e+00
1.514149134475437419e+00
1.554731376675966503e+00
1.591621038213319128e+00
1.629307640073748731e+00
1.663040974893974289e+00
1.697142126275459573e+00
1.731588765186738765e+00
1.765519543097952448e+00
1.797613730153075684e+00
1.830203598925704167e+00
1.859798547480565611e+00
1.889301702506310354e+00
1.917663024327374899e+00
1.947923619831726461e+00
1.973220246852233739e+00
2.001733712809000476e+00
2.027757204690553650e+00
2.053078443483419946e+00
2.078456818053292743e+00
2.103119253545713718e+00
2.128399268717806603e+00
2.152288344383056273e+00
2.175221800343052347e+00
2.197280558125619176e+00
2.219584526214254616e+00
2.242541428298383988e+00
2.264109156305808224e+00
2.284881714655452978e+00
2.304921161900891580e+00
2.325104982971407441e+00
2.345177616542704069e+00
2.364175632770619373e+00
2.383276650407650354e+00
2.401745082237062956e+00
2.420615770625765162e+00
2.438700532900736295e+00
2.455301771657076415e+00
2.473048805088537527e+00
2.489395921727129313e+00
2.506505032404871880e+00
2.522313795156667204e+00
1.093071306376063312e+00
1.151676230847047844e+00
1.204933522354144859e+00
1.252853030979893090e+00
1.299289334087679881e+00
1.347525159998689492e+00
1.393048466416778153e+00
1.436480695009495046e+00
1.477121254719662380e+00
1.517987203025078280e+00
1.556784782307025328e+00
1.595385980809141735e+00
1.631849462159818076e+00
1.666705136119898789e+00
1.701654317325748123e+00
1.733758835587202674e+00
1.770041554319668586e+00
1.799822830993319744e+00
1.829689640898971126e+00
1.861594144643865301e+00
1.892205945975772519e+00
1.921270185509812656e+00
1.949097125112915885e+00
1.976349979003273472e+00
2.003029470553618019e+00
2.028977705208777849e+00
2.056904851336472717e+00
2.082426300860771740e+00
2.106190897263415351e+00
2.129367595722985396e+00
2.153204900084284112e+00
2.177247836255623348e+00
2.200029266553770402e+00
2.221935599828005259e+00
2.244524511570083813e+00
2.265525335219073622e+00
2.285557309007773874e+00
2.307282047033345940e+00
2.326745379565321681e+00
2.346744054604848806e+00
2.366422957225972734e+00
2.384711742938282697e+00
2.403977963669354789e+00
2.421439390220049503e+00
2.439174739843468220e+00
2.457730548245998570e+00
2.474944335465387724e+00
2.491641793477586297e+00
2.508260305512334476e+00
2.523356206654792544e+00
1.101059354908115573e+00
1.156549151331781378e+00
1.204662511748218812e+00
1.256958152560931907e+00
1.303412070596742023e+00
1.350441856535061103e+00
1.396373727536506459e+00
1.439332693830262633e+00
1.480150725273280399e+00
1.520745471519482361e+00
1.559188189004775404e+00
1.596597095626460128e+00
1.633973155789673504e+00
1.667266119382274203e+00
1.703119346236077858e+00
1.737590166285721605e+00
1.769967801329442425e+00
1.802431626430723632e+00
1.833210880282608812e+00
1.865163219506086323e+00
1.894039000804608852e+00
1.921582440393416302e+00
1.950413539369381111e+00
1.978180516937413813e+00
2.004751155591001144e+00
2.030599721965951066e+00
2.056523724079100113e+00
2.081707270097349127e+00
2.107888025182798497e+00
2.131297796597622973e+00
2.155032228790970450e+00
2.178689239775589925e+00
2.200303182981584893e+00
2.224533062606085743e+00
2.246005904076028958e+00
2.267171728403013731e+00
2.287801729930226013e+00
2.308991029000164286e+00
2.329194415088450931e+00
2.348888723071437923e+00
2.367728546086976582e+00
2.386855529184724212e+00
2.404320467221730873e+00
2.422753941301348135e+00
2.441223674242612329e+00
2.458033192496505759e+00
2.475235222604128094e+00
2.491781775584165803e+00
2.509068045017161630e+00
2.524655712357777304e+00
1.104828403653655311e+00
1.158663980813989358e+00
1.211120541258049244e+00
1.259593878885948648e+00
1.305781151254982175e+00
1.352953911710087720e+00
1.400019635065158585e+00
1.439963935920904881e+00
1.482587769526767518e+00
1.522835313660529932e+00
1.560862694727464639e+00
1.598681098907163367e+00
1.635684762547222615e+00
1.672744198306599150e+00
1.704322140822235321e+00
1.737907923374638619e+00
1.771660959348887454e+00
1.802431626430723632e+00
1.835500327867318759e+00
1.864807629026147051e+00
1.895974732359064552e+00
1.923244018630276386e+00
1.952744024014898327e+00
1.979866922564902820e+00
2.008600171761917519e+00
2.032618760850720019e+00
2.059184617631371061e+00
2.084933574936715939e+00
2.108565023732834387e+00
2.133219456732494468e+00
2.157154439906281418e+00
2.179264464339025320e+00
2.202760687393199746e+00
2.226084115975823785e+00
2.247973266361806388e+00
2.267875419318897467e+00
2.288472800599782531e+00
2.309417225778140015e+00
2.330007700872759102e+00
2.349860082192331223e+00
2.369215857410142956e+00
2.386320573894046060e+00
2.405004665050369361e+00
2.425044874551388840e+00
2.441852175773291833e+00
2.459543258280413092e+00
2.477555332198980942e+00
2.493736802276839803e+00
2.510410948010176835e+00
2.525433553428820144e+00
1.107549129744686223e+00
1.162265614298021443e+00
1.214313897424399658e+00
1.263162464962216625e+00
1.311965660368366260e+00
1.355451520126517373e+00
1.400537989391946070e+00
1.444357125656027696e+00
1.486005186362242103e+00
1.524525936626375699e+00
1.564902672529204786e+00
1.600319329751661135e+00
1.638189640190836904e+00
1.672097857935717524e+00
1.707144188342445190e+00
1.739255803268510592e+00
1.772468403053280461e+00
1.803866634284984283e+00
1.837462171485994666e+00
1.866700756042499076e+00
1.895090896934399360e+00
1.926085086925144019e+00
1.954821183051793199e+00
1.982587790701662467e+00
2.009025742086910427e+00
2.035029282202367895e+00
2.059563417901267623e+00
2.085647288296856416e+00
2.111598524880394123e+00
2.135768514567822240e+00
2.159867847092566517e+00
2.181843587944772622e+00
2.204119982655925014e+00
2.226857570288723664e+00
2.248463717551032026e+00
2.270212854896242582e+00
2.290479813330672965e+00
2.310693312343360617e+00
2.330007700872759102e+00
2.350635608258954345e+00
2.369957607346052875e+00
2.388456452700266741e+00
2.407220892927396605e+00
2.426023015689876328e+00
2.443732241401596728e+00
2.459995256047391443e+00
2.477844476338758373e+00
2.495127881242933388e+00
2.510545010206612027e+00
2.526855987125874670e+00
1.112269768417270654e+00
1.166430113843282657e+00
1.218535505216527870e+00
1.265525335219073844e+00
1.314077991779212917e+00
1.359266164606748539e+00
1.402089350572096604e+00
1.446070935701005089e+00
1.487279816443068725e+00
1.527758752520971930e+00
1.564429326997983427e+00
1.603360924348380401e+00
1.639287225910236678e+00
1.675136504467994003e+00
1.706632450873294626e+00
1.741466761769754790e+00
1.772541732640943390e+00
1.806519134080705191e+00
1.838974954955467922e+00
1.867585326547036129e+00
1.898176483497676426e+00
1.926290986884863443e+00
1.954242509439324760e+00
1.981592117214081350e+00
2.009875633712160159e+00
2.037824750588341782e+00
2.062581984228163190e+00
2.087781417809542184e+00
2.111262513659065032e+00
2.136403448133989968e+00
2.160168292958512204e+00
2.183554533618861537e+00
2.205204363948144675e+00
2.227886704613673441e+00
2.248218561190074904e+00
2.272769586551759424e+00
2.292699003043929817e+00
2.312600439261259133e+00
2.332842266994351377e+00
2.351989455435631982e+00
2.371437317404101019e+00
2.389874558390985282e+00
2.408239965311849584e+00
2.426511261364575400e+00
2.444200988864159374e+00
2.461348433647982947e+00
2.479575310174988445e+00
2.494988973683168076e+00
2.512951079972490565e+00
2.528273777167043601e+00
1.118595365223761906e+00
1.171433900943008144e+00
1.218797998111737613e+00
1.270678836144706336e+00
1.318272080211627006e+00
1.363423932917176451e+00
1.407730728026335365e+00
1.448706319905079809e+00
1.490379920003178871e+00
1.527501010981120233e+00
1.565965817446666630e+00
1.606381365110604920e+00
1.640779477344856963e+00
1.674125982742708185e+00
1.711554168250169594e+00
1.746556361410369185e+00
1.776337909620175237e+00
1.808818425092124205e+00
1.840795898847093826e+00
1.869642344651594623e+00
1.898670342965529834e+00
1.929112256654660573e+00
1.957032316346938305e+00
1.983716473913749390e+00
2.010723865391772947e+00
2.037824750588341782e+00
2.065952980313869425e+00
2.089551882886453882e+00
2.114610984232172974e+00
2.138302698166281601e+00
2.161667412437735969e+00
2.184407485412320327e+00
2.207365037469071645e+00
2.229681842317675855e+00
2.251151343175354480e+00
2.271841606536499025e+00
2.294245716138118230e+00
2.314288660947497522e+00
2.334453751150930678e+00
2.352953911710087720e+00
2.372175286115064008e+00
2.391816923613248935e+00
2.410102076642860691e+00
2.428944290035574216e+00
2.446537167073643548e+00
2.464191370640999690e+00
2.479287316476169956e+00
2.496514518697745100e+00
2.512284063281853719e+00
2.530583859645117784e+00
1.122215878272826650e+00
1.174931593528442564e+00
1.225050696138048734e+00
1.273464272621346316e+00
1.320146286111054001e+00
1.366049209800235475e+00
1.409256652038909596e+00
1.452246574520437150e+00
1.492201451392539679e+00
1.532499586094662414e+00
1.568084331315394042e+00
1.606273853169988275e+00
1.641870545476312726e+00
1.677698181474510664e+00
1.712649701627211307e+00
1.745465168670726985e+00
1.780173243642594105e+00
1.809963521714013979e+00
1.841547165256553154e+00
1.872913441620395192e+00
1.901403826825251775e+00
1.929776432804901853e+00
1.960185276604610838e+00
1.986144464710520641e+00
2.014100321519620707e+00
2.040206627574711273e+00
2.066325925362037630e+00
2.090258052931316168e+00
2.115610511674299588e+00
2.139564266175849827e+00
2.164055291893451471e+00
2.186673867499745239e+00
2.208172526667121716e+00
2.231214647962600939e+00
2.252853030979893312e+00
2.274619619091238221e+00
2.294466226161592903e+00
2.314288660947497522e+00
2.335457900689384303e+00
2.354684553954728532e+00
2.373831145073830307e+00
2.392696953259665804e+00
2.411619705963230054e+00
2.429267666433168493e+00
2.446692466371527264e+00
2.464042205438810917e+00
2.480868923687167715e+00
2.498310553789600430e+00
2.514813294999285187e+00
2.530327789778086256e+00
1.126131407261984352e+00
1.178689239775589925e+00
1.228400358703004791e+00
1.275080898456858458e+00
1.323458366849467716e+00
1.368658712392226917e+00
1.412124406173317137e+00
1.454997217309459856e+00
1.493597449000526822e+00
1.534406899137876978e+00
1.570776368794748246e+00
1.609167374302019837e+00
1.645422269349091859e+00
1.681602998730868492e+00
1.714413592287121091e+00
1.748420622467568242e+00
1.779524343324789815e+00
1.811038508604215780e+00
1.844228581301627923e+00
1.874539797071010261e+00
1.903198547042978417e+00
1.932778070060550579e+00
1.959041392321093644e+00
1.988023561928659699e+00
2.014520538757923696e+00
2.042181594515766196e+00
2.066325925362037630e+00
2.092720644684099351e+00
2.115943176939055093e+00
2.140822180109310580e+00
2.165244326125310703e+00
2.188084373714938025e+00
2.208710019906400923e+00
2.231979026831504065e+00
2.253822438708073417e+00
2.276231957921833526e+00
2.296006669313672255e+00
2.315970345456917823e+00
2.337259539750275561e+00
2.356025857193122519e+00
2.375480714618572353e+00
2.393750640348080161e+00
2.411451342137937548e+00
2.430236353411510564e+00
2.448087666692341013e+00
2.465234094988014490e+00
2.482730700079943009e+00
2.500236474825638933e+00
2.515608949234480196e+00
2.531351164583059532e+00
1.130655349022030576e+00
1.182129214052998423e+00
1.232487866352986128e+00
1.277838333002047522e+00
1.326949994165998792e+00
1.372175286115064008e+00
1.413467412985824900e+00
1.456062224454951481e+00
1.497620649781287838e+00
1.533517862016967381e+00
1.573683693093797853e+00
1.610660163089880026e+00
1.647382970114619871e+00
1.681331705969165702e+00
1.716504163773216796e+00
1.750585527341008696e+00
1.783045572114692945e+00
1.814846668604463309e+00
1.844663528240239048e+00
1.874075745223034772e+00
1.904282657645627985e+00
1.934700401715424789e+00
1.962227231350085033e+00
1.989627770745151070e+00
2.016197353512438895e+00
2.044147620878722815e+00
2.068556895072362956e+00
2.093421685162235146e+00
2.118595365223761906e+00
2.143639235274543253e+00
2.165541076722373059e+00
2.189770956346873909e+00
2.212187604403957675e+00
2.233250009541100312e+00
2.255513712819533279e+00
2.276461804173244285e+00
2.297322714205302763e+00
2.316599302093860668e+00
2.337259539750275561e+00
2.357363030615142740e+00
2.376029181728180006e+00
2.395151591504542488e+00
2.413802516769351314e+00
2.432006687269598455e+00
2.448706319905079809e+00
2.465680211598277882e+00
2.483729899000023611e+00
2.499961865596190158e+00
2.516799704081624345e+00
2.533772058384717862e+00
1.135132651376774771e+00
1.186673867499745239e+00
1.235780870327560343e+00
1.283753383332526532e+00
1.327358934386330347e+00
1.374381698050882061e+00
1.415307292225567393e+00
1.457276186061325696e+00
1.498723970747904755e+00
1.537063142781617042e+00
1.576341350205792802e+00
1.612995656032347513e+00
1.649821463224565132e+00
1.685831274626063525e+00
1.720407400803108500e+00
1.751971574736327142e+00
1.783474787582246313e+00
1.814647069451855943e+00
1.846337112129805336e+00
1.878694100396108402e+00
1.907303848833969528e+00
1.935204867426581377e+00
1.962937288430001814e+00
1.990072334692152944e+00
2.017450729510536167e+00
2.044931546149160173e+00
2.070776462843434640e+00
2.095518042323150976e+00
2.120573931205850027e+00
2.144574207609616145e+00
2.167021795790256444e+00
2.191171455728558648e+00
2.214048679411941389e+00
2.235528446907548705e+00
2.255754786643044074e+00
2.278296208091273645e+00
2.298634783124435366e+00
2.319522449065453795e+00
2.340245761567931737e+00
2.357934847000453971e+00
2.377488383376132663e+00
2.397244581010386177e+00
2.414471949629302561e+00
2.432167269442588431e+00
2.450557009418329102e+00
2.468790262099611166e+00
2.485721426481580121e+00
2.502563669107363165e+00
2.518250651308500121e+00
2.533899100796594528e+00
1.139564266175849827e+00
1.189770956346873909e+00
1.239299479126892534e+00
1.285332227643884551e+00
1.331629717629932319e+00
1.376211850282672788e+00
1.417803722639880970e+00
1.461798557525109121e+00
1.499687082618403888e+00
1.540829814111079665e+00
1.577721524509020812e+00
1.614369839548288610e+00
1.651762447380110910e+00
1.685024785105714074e+00
1.720076572768140633e+00
1.754654069255431992e+00
1.784759894664004864e+00
1.818093869146635955e+00
1.846398973034674817e+00
1.878636673026516712e+00
1.908753019184533661e+00
1.936161740911157558e+00
1.964778022022376058e+00
1.992111487786949686e+00
2.020361282647707757e+00
2.048053173115608860e+00
2.071882007306125484e+00
2.097604328874410839e+00
2.121887985103680929e+00
2.145196406114181720e+00
2.169380495311949542e+00
2.193402903062417586e+00
2.215901813204031789e+00
2.237543738142874439e+00
2.257438566859813811e+00
2.278982116865443164e+00
2.299289334087680103e+00
2.320354032817671719e+00
2.341236623238692083e+00
2.360404054729938750e+00
2.380753770803900160e+00
2.398634324538392093e+00
2.416806871822944291e+00
2.434888120867315653e+00
2.451939869365102886e+00
2.468790262099611166e+00
2.486288760960566169e+00
2.502700175310562880e+00
2.519696767159853135e+00
2.536305872351033663e+00
1.143951116423963521e+00
1.194514341882467301e+00
1.234517283512686747e+00
1.289588952542596756e+00
1.336059277866349371e+00
1.378579576115774863e+00
1.420615770625764940e+00
1.462847035831673637e+00
1.502290527914772911e+00
1.541704023284288239e+00
1.581038948772167219e+00
1.616160312847582992e+00
1.653791187387811945e+00
1.688241795977711845e+00
1.720985744153739061e+00
1.754118894225412895e+00
1.788663213120857520e+00
1.820201459485640161e+00
1.850094594386700875e+00
1.880012838366771799e+00
1.908967300418387802e+00
1.940516484932567121e+00
1.966188680956137080e+00
1.996467890261717226e+00
2.022428371185486462e+00
2.048830086528349970e+00
2.073718350346122730e+00
2.099335277685957735e+00
2.123198075031998755e+00
2.147676324241098555e+00
2.170848203643309215e+00
2.194236748723829233e+00
2.216165902285993194e+00
2.238798562713916862e+00
2.260786668654976239e+00
2.280578370368076424e+00
2.302330928684399147e+00
2.321184027302313879e+00
2.342422680822206171e+00
2.361160995195025869e+00
2.380753770803900160e+00
2.398113691730502595e+00
2.417305583244525380e+00
2.436003535669896358e+00
2.453165392525856969e+00
2.470704429722788031e+00
2.488127496247458215e+00
2.505285674144132280e+00
2.519827993775718866e+00
2.536305872351033663e+00
1.148294097434745531e+00
1.197004728023045583e+00
1.246744709723841327e+00
1.294466226161592903e+00
1.338057875419756071e+00
1.382017042574868348e+00
1.424064525417487737e+00
1.466125870418199195e+00
1.503518312724074768e+00
1.545801757159276146e+00
1.582290682718993979e+00
1.618257344840401402e+00
1.655426587745918665e+00
1.687707279624818923e+00
1.723044991643444934e+00
1.757092220118932513e+00
1.789298611159441110e+00
1.822691010776054554e+00
1.850768726928880170e+00
1.881840968324927310e+00
1.910624404889201156e+00
1.940117866747718578e+00
1.969042967305813185e+00
1.997298992409513918e+00
2.023663918197793343e+00
2.048441803550404394e+00
2.076276255404217785e+00
2.096910013008056239e+00
2.124178055474675197e+00
2.148602654806093248e+00
2.171433900943008144e+00
2.193402903062417586e+00
2.217747073262793744e+00
2.239799818447098634e+00
2.262213705476416870e+00
2.282395504742525727e+00
2.302979936748249301e+00
2.323252100171687040e+00
2.343211590179747450e+00
2.363423932917176451e+00
2.382197210377453800e+00
2.399327532158678888e+00
2.418301291319745250e+00
2.436957330669449640e+00
2.453624073591450738e+00
2.471731651480050918e+00
2.488832634382400322e+00
2.505149978319905824e+00
2.522574632691176877e+00
2.537819095073273967e+00
